Optimization tips • skytrackr
…
#> # A tibble: 8,638 × 8
#> # Groups:   logger, date [30]
#>    logger date_time           date        hour measurement value outlier
#>    <chr>  <dttm>              <date>     <dbl> <chr>       <dbl> <lgl>  
#>  1 CC876  2021-08-02 00:09:10 2021-08-02 0.153 lux          0.08 FALSE  
#>  2 CC876  2021-08-02 00:14:10 2021-08-02 0.236 lux          0.08 FALSE  
#>  3 CC876  2021-08-02 00:19:10 2021-08-02 0.319 lux          0.08 FALSE  
#>  4 CC876  2021-08-02 00:24:10 2021-08-02 0.403 lux          0.08 FALSE  
#>  5 CC876  2021-08-02 00:29:10 2021-08-02 0.486 lux          0.08 FALSE  
#>  6 CC876  2021-08-02 00:34:10 2021-08-02 0.569 lux          0.08 FALSE  
#>  7 CC876  2021-08-02 00:39:10 2021-08-02 0.653 lux          0.08 FALSE  
#>  8 CC876  2021-08-02 00:44:10 2021-08-02 0.736 lux          0.08 FALSE  
#>  9 CC876  2021-08-02 00:49:10 2021-08-02 0.819 lux          0.08 FALSE  
#> 10 CC876  2021-08-02 00:54:10 2021-08-02 0.903 lux          0.08 FALSE  
#> # ℹ 8,628 more rows
#> # ℹ 1 more variable: selected <lgl>
…
